{
    "python.pythonPath": ".\\venv\\Scripts\\python.exe",
    //"python.linting.pep8Enabled": false,
    "python.formatting.provider": "black",
    "sqltools.useNodeRuntime": true,
    "python.linting.enabled": true,
    "python.linting.pylintEnabled": true,
    "[html]": {
        "editor.formatOnSave": false
    },
    "[python]": {
        "editor.formatOnSave": true,
    },
    "[javascript]": {
        "editor.formatOnSave": false
    },
    "python.linting.pylintPath": "pylint",
    "python.linting.pylintArgs": [
        "--load-plugins",
        "pylint_django"
    ],
    "files.exclude": {
        "venv": true,
        "static/static_root": true,
        "**/venv": true,
        "**/static/static_root": true,
        "**/.git": true,
        "**/.svn": true,
        "**/.hg": true,
        "**/CVS": true,
        "**/.DS_Store": true,
        "**/*.pyc": true,
        "**/__pycache__/": true
    },
    "python.linting.pep8Enabled": true,
    "python.linting.pep8Args": [
        "--max-line-length=120",
        "--ignore=E501",
    ],
    "python.linting.flake8Enabled": true,
    "python.linting.flake8Args": [
        "--max-line-length=120"
    ],
    "workbench.colorCustomizations": {
        "editorError.border": "#CA2323A4",
        "editorError.foreground": "#CA2323A4",
    }
}
